<?xml version="1.0" encoding="UTF-8"?>
<svg width="8px" height="10px" viewBox="0 0 8 10" version="1.1" xmlns="http://www.w3.org/2000/svg" xmlns:xlink="http://www.w3.org/1999/xlink">
    <!-- Generator: Sketch 51 (57462) - http://www.bohemiancoding.com/sketch -->
    <title>notificacion</title>
    <desc>Created with Sketch.</desc>
    <defs></defs>
    <g id="Page-1" stroke="none" stroke-width="1" fill="none" fill-rule="evenodd">
        <g id="Artboard" transform="translate(-285.000000, -139.000000)" fill="#5742F0">
            <g id="icono__notificaciones" transform="translate(285.000000, 139.000000)">
                <g id="1-copy" transform="translate(0.612500, 0.524306)">
                    <g id="notificacion">
                        <g id="not__azul">
                            <path d="M3.56874102,1.38183922 C1.90364319,1.38183922 0.54903846,2.70452173 0.54903846,4.33038033 L0.54903846,7.46193181 L1.36167168,7.46193181 L1.36167168,4.33038033 C1.36167168,3.04096129 2.24808581,2.21181991 3.56875,2.21181991 C4.88941419,2.21181991 5.77475596,3.04094376 5.77475596,4.33038033 L5.77475596,7.46193181 L6.58846153,7.46193181 L6.58846153,4.33038033 C6.58844357,2.70452173 5.23383886,1.38183922 3.56874102,1.38183922 Z" id="Shape" fill-rule="nonzero"></path>
                            <path d="M6.83159385,7.18556396 L0.305888586,7.18556396 C0.136933281,7.18556396 0,7.37114115 0,7.60011575 C0,7.82909036 0.136933281,8.0146675 0.305888586,8.0146675 L6.83161141,8.0146675 C7.00056671,8.0146675 7.1375,7.82909036 7.1375,7.60011575 C7.1375,7.37114115 7.00054914,7.18556396 6.83159385,7.18556396 Z" id="Shape" fill-rule="nonzero"></path>
                            <path d="M3.56875,0 C3.11463153,0 2.74519231,0.371927033 2.74519231,0.829103535 C2.74519231,1.28628004 3.11463153,1.65820707 3.56875,1.65820707 C4.02286848,1.65820707 4.3923077,1.28628004 4.3923077,0.829103535 C4.3923077,0.371927033 4.02286848,0 3.56875,0 Z M3.56875,1.11749075 C3.4134404,1.11749075 3.28229179,0.985381274 3.28229179,0.829103535 C3.28229179,0.672748084 3.4134404,0.540716317 3.56875,0.540716317 C3.7240596,0.540716317 3.85520821,0.672748084 3.85520821,0.829103535 C3.85520821,0.985458986 3.7240596,1.11749075 3.56875,1.11749075 Z" id="Shape" fill-rule="nonzero"></path>
                            <path d="M4.06787117,7.73829966 L4.06787117,8.18185337 C4.06787117,8.41701682 3.84396217,8.60834279 3.56875,8.60834279 C3.29353783,8.60834279 3.06962882,8.41701682 3.06962882,8.18185337 L3.06962882,7.73829966 L2.47067308,7.73829966 L2.47067308,8.18185337 C2.47067308,8.69918068 2.96330389,9.12013889 3.56875,9.12013889 C4.17417888,9.12013889 4.66682694,8.69919539 4.66682694,8.18185337 L4.66682694,7.73829966 L4.06787117,7.73829966 Z" id="Shape" fill-rule="nonzero"></path>
                        </g>
                    </g>
                </g>
            </g>
        </g>
    </g>
</svg>